﻿biomes.png=3408808724
checksums.txt=3550126143
dtm.raw=801378488
dtm_processed.raw=3370856366
main.ttw=2911679188
map_info.xml=3209303546
prefabs.xml=610760494
radiation.png=3394816487
spawnpoints.xml=3485344091
splat1.png=725985863
splat2.png=1397755803
splat3.png=1790309469
splat3_processed.png=1482412664
splat4_processed.png=1192315978
version.txt=902390522
water_info.xml=1256505045
